[
  {
    "sys": 1,
    "name": "FlyFF",
    "ip": "127.0.0.1",
    "enable": true,
    "channels": [
      {
        "id": 1,
        "name": "Channel 1",
        "max": 500,
        "enable": true,
        "b18": true
      }
    ]
  }
]